%YAML 1.1
%TAG !u! tag:unity3d.com,2011:
--- !u!114 &11400000
MonoBehaviour:
  m_ObjectHideFlags: 0
  m_CorrespondingSourceObject: {fileID: 0}
  m_PrefabInternal: {fileID: 0}
  m_GameObject: {fileID: 0}
  m_Enabled: 1
  m_EditorHideFlags: 0
  m_Script: {fileID: 11500000, guid: 7ef52b3e0a7a8724a990bef247bdbece, type: 3}
  m_Name: Inao
  m_EditorClassIdentifier: 
  movementStats: {fileID: 11400000, guid: 009697ed96f7e5149a4205475f1cafe6, type: 2}
  basicAttack: {fileID: 11400000, guid: 929fa6ab5e6ff244c9ee18830a539158, type: 2}
  animationController: {fileID: 22100000, guid: 47bc9a1a310ec07498ffee2cec70f89e,
    type: 2}
