%YAML 1.1
%TAG !u! tag:unity3d.com,2011:
--- !u!114 &11400000
MonoBehaviour:
  m_ObjectHideFlags: 0
  m_CorrespondingSourceObject: {fileID: 0}
  m_PrefabInternal: {fileID: 0}
  m_GameObject: {fileID: 0}
  m_Enabled: 1
  m_EditorHideFlags: 0
  m_Script: {fileID: 11500000, guid: d7990a25d2d7e9f42abdaf1ddda19320, type: 3}
  m_Name: Yuna Movement
  m_EditorClassIdentifier: 
  walkForce: 1500
  walkSpeedCap: 4.5
  runForce: 2250
  runSpeedCap: 9
  jumpForce: 600
  airCorrectionForce: 900
